{
  "project_info": {
    "project_number": "274522266787",
    "firebase_url": "https://fight-or-die-73758796.firebaseio.com",
    "project_id": "fight-or-die-73758796",
    "storage_bucket": "fight-or-die-73758796.appspot.com"
  },
  "client": [
    {
      "client_info": {
        "mobilesdk_app_id": "1:274522266787:android:342355647c03cb15",
        "android_client_info": {
          "package_name": "com.ProgramComp.FightOrDie"
        }
      },
      "oauth_client": [
        {
          "client_id": "274522266787-7h18mjtpnt4532oupe39ss1jdgemetvi.apps.googleusercontent.com",
          "client_type": 1,
          "android_info": {
            "package_name": "com.ProgramComp.FightOrDie",
            "certificate_hash": "7a02542c035c3fc353a2e94d22fc2eaf36e938e1"
          }
        },
        {
          "client_id": "274522266787-hd6s83t6c9bkdal8lboifivg9c4a2qnr.apps.googleusercontent.com",
          "client_type": 1,
          "android_info": {
            "package_name": "com.ProgramComp.FightOrDie",
            "certificate_hash": "4213c48e636131d40aa6c0f28eb1fd7b15c8a9c9"
          }
        },
        {
          "client_id": "274522266787-57l2plfj53kuieialtof61tpp0dgucum.apps.googleusercontent.com",
          "client_type": 3
        },
        {
          "client_id": "274522266787-57l2plfj53kuieialtof61tpp0dgucum.apps.googleusercontent.com",
          "client_type": 3
        }
      ],
      "api_key": [
        {
          "current_key": "AIzaSyCxwIL-dQpktpp_R0C1SC2lnqZeahT1_NA"
        }
      ],
      "services": {
        "analytics_service": {
          "status": 1
        },
        "appinvite_service": {
          "status": 2,
          "other_platform_oauth_client": [
            {
              "client_id": "274522266787-57l2plfj53kuieialtof61tpp0dgucum.apps.googleusercontent.com",
              "client_type": 3
            }
          ]
        },
        "ads_service": {
          "status": 2
        }
      }
    }
  ],
  "configuration_version": "1"
}